…
```r
# calculate mean and median of steps taken per day 
data_mean<- data %>%  group_by(date) %>%  summarise(mean = mean(steps, na.rm =  TRUE))

data_median<-data %>% group_by(date) %>%  summarise(median = median(steps, na.rm = TRUE))

#report the mean and median values
data_report<- left_join(data_mean, data_median) %>% print()
```

```
## # A tibble: 61 x 3
##    date          mean median
##    <date>       <dbl>  <dbl>
##  1 2012-10-01 NaN         NA
##  2 2012-10-02   0.438      0
##  3 2012-10-03  39.4        0
##  4 2012-10-04  42.1        0
##  5 2012-10-05  46.2        0
##  6 2012-10-06  53.5        0
##  7 2012-10-07  38.2        0
##  8 2012-10-08 NaN         NA
##  9 2012-10-09  44.5        0
## 10 2012-10-10  34.4        0
## # … with 51 more rows
```
…
```r
#Calculate the mean total number of steps taken per day
data_new_mean<- data_new %>%  group_by(date) %>%  summarise(new_mean = mean(steps)) 

#Calculate the median total number of steps taken per day
data_new_median<- data_new %>%  group_by(date) %>%  summarise(new_median = median(steps)) 

#Report the mean and median of total number of steps taken per day
data_new_report<- left_join(data_new_mean, data_new_median) %>%  print()
```

```
## # A tibble: 61 x 3
##    date       new_mean new_median
##    <date>        <dbl>      <dbl>
##  1 2012-10-01   37.4         34.1
##  2 2012-10-02    0.438        0  
##  3 2012-10-03   39.4          0  
##  4 2012-10-04   42.1          0  
##  5 2012-10-05   46.2          0  
##  6 2012-10-06   53.5          0  
##  7 2012-10-07   38.2          0  
##  8 2012-10-08   37.4         34.1
##  9 2012-10-09   44.5          0  
## 10 2012-10-10   34.4          0  
## # … with 51 more rows
```


```r
#Do these values differ from the estimates from the first part of the assignment? 
data_mean_median<-left_join(data_report, data_new_report) %>% print()
```

```
## # A tibble: 61 x 5
##    date          mean median new_mean new_median
##    <date>       <dbl>  <dbl>    <dbl>      <dbl>
##  1 2012-10-01 NaN         NA   37.4         34.1
##  2 2012-10-02   0.438      0    0.438        0  
##  3 2012-10-03  39.4        0   39.4          0  
##  4 2012-10-04  42.1        0   42.1          0  
##  5 2012-10-05  46.2        0   46.2          0  
##  6 2012-10-06  53.5        0   53.5          0  
##  7 2012-10-07  38.2        0   38.2          0  
##  8 2012-10-08 NaN         NA   37.4         34.1
##  9 2012-10-09  44.5        0   44.5          0  
## 10 2012-10-10  34.4        0   34.4          0  
## # … with 51 more rows
```
…
